module github.com/romanthekat/experiments/games/ttt

go 1.15

require (
	github.com/gdamore/tcell v1.4.0
	github.com/rivo/tview v0.0.0-20201204190810-5406288b8e4e
	golang.org/x/sys v0.0.0-20201113233024-12cec1faf1ba // indirect
	golang.org/x/text v0.3.4 // indirect
)
